{
	"skins": {
		"eui.Button": "resource/eui_skins/ButtonSkin.exml",
		"eui.CheckBox": "resource/eui_skins/CheckBoxSkin.exml",
		"eui.HScrollBar": "resource/eui_skins/HScrollBarSkin.exml",
		"eui.HSlider": "resource/eui_skins/HSliderSkin.exml",
		"eui.Panel": "resource/eui_skins/PanelSkin.exml",
		"eui.TextInput": "resource/eui_skins/TextInputSkin.exml",
		"eui.ProgressBar": "resource/eui_skins/ProgressBarSkin.exml",
		"eui.RadioButton": "resource/eui_skins/RadioButtonSkin.exml",
		"eui.Scroller": "resource/eui_skins/ScrollerSkin.exml",
		"eui.ToggleSwitch": "resource/eui_skins/ToggleSwitchSkin.exml",
		"eui.VScrollBar": "resource/eui_skins/VScrollBarSkin.exml",
		"eui.VSlider": "resource/eui_skins/VSliderSkin.exml",
		"eui.ItemRenderer": "resource/eui_skins/ItemRendererSkin.exml"
	},
	"autoGenerateExmlsList": true,
	"exmls": [
		"resource/eui_skins/ButtonSkin.exml",
		"resource/eui_skins/CheckBoxSkin.exml",
		"resource/eui_skins/HScrollBarSkin.exml",
		"resource/eui_skins/HSliderSkin.exml",
		"resource/eui_skins/ItemRendererSkin.exml",
		"resource/eui_skins/PanelSkin.exml",
		"resource/eui_skins/ProgressBarSkin.exml",
		"resource/eui_skins/RadioButtonSkin.exml",
		"resource/eui_skins/ScrollerSkin.exml",
		"resource/eui_skins/TextInputSkin.exml",
		"resource/eui_skins/ToggleSwitchSkin.exml",
		"resource/eui_skins/VScrollBarSkin.exml",
		"resource/eui_skins/VSliderSkin.exml",
		"resource/assets/MyExml/BottomButtons.exml",
		"resource/assets/MyExml/CBank.exml",
		"resource/assets/MyExml/CBankBack.exml",
		"resource/assets/MyExml/CBoost.exml",
		"resource/assets/MyExml/CBulldozeLotConfirm.exml",
		"resource/assets/MyExml/CButtomTimeBooste.exml",
		"resource/assets/MyExml/CButtonCityHall.exml",
		"resource/assets/MyExml/CButtonPig.exml",
		"resource/assets/MyExml/CButtonSettings.exml",
		"resource/assets/MyExml/CBuyLotPanel.exml",
		"resource/assets/MyExml/CCityHall.exml",
		"resource/assets/MyExml/CCityHallItem.exml",
		"resource/assets/MyExml/CCosmosButton1.exml",
		"resource/assets/MyExml/CCosmosButton2.exml",
		"resource/assets/MyExml/CCosmosButton3.exml",
		"resource/assets/MyExml/CCosmosButton4.exml",
		"resource/assets/MyExml/CCosmosButton5.exml",
		"resource/assets/MyExml/CCosmosButton6.exml",
		"resource/assets/MyExml/CCosmosButton7.exml",
		"resource/assets/MyExml/CCosmosButton8.exml",
		"resource/assets/MyExml/CCosmosSimpleButton.exml",
		"resource/assets/MyExml/CDeveloperEditor.exml",
		"resource/assets/MyExml/CDistrictBtn.exml",
		"resource/assets/MyExml/CPosButton.exml",
		"resource/assets/MyExml/CProgressBar.exml",
		"resource/assets/MyExml/CProgressBar2.exml",
		"resource/assets/MyExml/CSpecailPanel.exml",
		"resource/assets/MyExml/CTaskButton.exml",
		"resource/assets/MyExml/CToNextCityPanel.exml",
		"resource/assets/MyExml/CUpgradePanel.exml",
		"resource/assets/MyExml/CWindTurbine.exml",
		"resource/assets/MyExml/DistrictSketch.exml",
		"resource/assets/MyExml/Distrixt.exml",
		"resource/assets/MyExml/Gararge.exml",
		"resource/assets/MyExml/GarargeItem.exml",
		"resource/assets/MyExml/UIWelcome.exml",
		"resource/assets/MyExml/test_ui.exml",
		"resource/assets/MyExml/UIBase/CUIBaseNumBubble.exml"
	],
	"path": "resource/default.thm.json"
}